{
  "quotes": [
    {
      "quote": "Lorem ipsum dolor sit amet, consectetur adipiscing elit, sed do eiusmod tempor incididunt ut labore.",
      "author": "@simmxns"
    },
    {
      "quote": "Lorem ipsum dolor sit amet, consectetur adipiscing elit, sed do eiusmod tempor incididunt ut labore.",
      "author": "@simmxns"
    },
    {
      "quote": "Lorem ipsum dolor sit amet, consectetur adipiscing elit, sed do eiusmod tempor incididunt ut labore.",
      "author": "@simmxns"
    },
    {
      "quote": "Lorem ipsum dolor sit amet, consectetur adipiscing elit, sed do eiusmod tempor incididunt ut labore.",
      "author": "@simmxns"
    },
    {
      "quote": "Lorem ipsum dolor sit amet, consectetur adipiscing elit, sed do eiusmod tempor incididunt ut labore.",
      "author": "@simmxns"
    },
    {
      "quote": "Lorem ipsum dolor sit amet, consectetur adipiscing elit, sed do eiusmod tempor incididunt ut labore.",
      "author": "@simmxns"
    },
    {
      "quote": "Lorem ipsum dolor sit amet, consectetur adipiscing elit, sed do eiusmod tempor incididunt ut labore.",
      "author": "@simmxns"
    }
  ]
}